Lab06_Homework_Visualizing-Date-Time
…
  # theme(text = element_text(family = "Noto Sans CJK TC Medium")) 
  # theme(text = element_text(family = "微軟正黑體"))

#> # A tibble: 30,879 x 9
#>    name       year area    town            date  height  value percentage county
#>    <chr>     <dbl> <chr>   <chr>           <chr>  <dbl>  <dbl> <chr>      <chr> 
#>  1 石門水庫   2020 臺灣北區… 桃園市龍潭區、大溪區、復興區… 1/1    242.  1.75e4 88.89 %    桃園市
#>  2 西勢水庫   2020 臺灣北區… 基隆巿暖暖區    1/1     72.1 4.37e1 100 %      基隆巿
#>  3 新山水庫   2020 臺灣北區… 基隆巿安樂區    1/1     83.8 8.68e2 86.61 %    基隆巿
#>  4 翡翠水庫   2020 臺灣北區… 新北市新店區    1/1    167.  3.09e4 92.24 %    新北市
#>  5 寶山水庫   2020 臺灣北區… 新竹縣寶山鄉    1/1    140.  4.32e2 85.79 %    新竹縣
#>  6 寶山第二水庫…  2020 臺灣北區… 新竹縣寶山鄉    1/1    143.  2.23e3 71.01 %    新竹縣
#>  7 永和山水庫…  2020 臺灣中區… 苗栗縣頭份鎮、三灣鄉… 1/1     78.8 2.02e3 67.27 %    苗栗縣
#>  8 大埔水庫   2020 臺灣中區… 新竹縣峨眉鄉    1/1     69.0 4.73e2 89.18 %    新竹縣
#>  9 明德水庫   2020 臺灣中區… 苗栗縣頭屋鄉    1/1     57.9 7.92e2 64.78 %    苗栗縣
#> 10 鯉魚潭水庫…  2020 臺灣中區… 苗栗縣卓蘭鎮大湖鄉… 1/1    294.  8.87e3 77.45 %    苗栗縣
#> # … with 30,869 more rows
…
